{
  "customers": [
    {
      "phoneNumber": "2344212",
      "name": "Ituo",
      "comments": "Good",
      "id": 1
    },
    {
      "phoneNumber": "4234223",
      "name": "KOECH",
      "comments": "FRESH",
      "id": 2
    },
    {
      "phoneNumber": "534213121",
      "name": "Mbugua",
      "comments": "Awesome",
      "id": 3
    }
  ],
  "orders": [
    {
      "date": "2019-01-09T14:53:41.351Z",
      "customersId": 1,
      "deliveryId": 1,
      "id": 1
    },
    {
      "date": "2019-01-09T15:24:31.540Z",
      "customersId": 2,
      "deliveryId": 2,
      "id": 2
    },
    {
      "date": "2019-01-09T15:30:03.755Z",
      "customersId": 3,
      "deliveryId": 3,
      "id": 3
    }
  ],
  "orderDetail": [
    {
      "orderId": 1,
      "productId": 5,
      "quantity": "2",
      "id": 1
    },
    {
      "orderId": 1,
      "productId": 6,
      "quantity": "2",
      "id": 2
    },
    {
      "orderId": 2,
      "productId": 2,
      "quantity": "2",
      "id": 3
    },
    {
      "orderId": 2,
      "productId": 1,
      "extrasId": 0,
      "quantity": "1",
      "id": 4
    },
    {
      "orderId": 3,
      "productId": 2,
      "quantity": "2",
      "id": 5
    },
    {
      "orderId": 3,
      "productId": 1,
      "extrasId": 0,
      "quantity": "1",
      "id": 6
    },
    {
      "orderId": 3,
      "productId": 7,
      "quantity": "1",
      "id": 7
    }
  ],
  "extras": [
    {
      "id": 0,
      "name": "Extra cheese",
      "price": "150"
    },
    {
      "id": 1,
      "name": "Extra toppings",
      "price": "150"
    },
    {
      "id": 2,
      "name": "Both",
      "price": "300"
    },
    {
      "id": 3,
      "name": "No",
      "price": "0"
    }
  ],
  "productTypes": [
    {
      "id": 0,
      "title": "pizza",
      "key": "productTypes"
    },
    {
      "id": 1,
      "title": "fries",
      "key": "productTypes"
    },
    {
      "id": 2,
      "title": "chicken",
      "key": "productTypes"
    }
  ],
  "products": [
    {
      "id": 1,
      "name": "Chicken Tikka",
      "size": "Small",
      "price": "500",
      "productTypesId": 0
    },
    {
      "id": 2,
      "name": "Spicy fries",
      "price": "700",
      "productTypesId": 1
    },
    {
      "id": 5,
      "name": "Plain fries",
      "price": "220",
      "productTypesId": 1
    },
    {
      "productTypesId": 2,
      "name": "Fried chicken",
      "price": "210",
      "id": 6
    },
    {
      "productTypesId": 2,
      "name": "Grilled chicken",
      "price": "310",
      "id": 7,
      "productTypes": {
        "id": 2,
        "title": "chicken",
        "key": "productTypes"
      }
    },
    {
      "productTypesId": 0,
      "name": "Barbecue",
      "size": "Large",
      "price": "1000",
      "id": 8,
      "productTypes": {
        "id": 0,
        "title": "pizza",
        "key": "productTypes"
      }
    },
    {
      "name": "Hawaiian",
      "price": "1000",
      "size": "Large",
      "productTypesId": 0,
      "id": 9
    },
    {
      "name": "Barbecue ",
      "price": "500",
      "size": "Small",
      "productTypesId": 0,
      "id": 10
    }
  ],
  "delivery": [
    {
      "type": "Paid delivery",
      "location": "Mumbuni",
      "cost": "100",
      "time": "30",
      "id": 1
    },
    {
      "type": "Walk in",
      "location": "",
      "cost": "",
      "time": "10",
      "id": 2
    },
    {
      "type": "Paid delivery",
      "location": "Sagana",
      "cost": "300",
      "time": "30",
      "id": 3
    }
  ]
}